{
  "page": 1,
  "total_results": 140,
  "total_pages": 7,
  "results": [
    {
      "vote_count": 9522,
      "id": 11,
      "video": false,
      "vote_average": 8.2,
      "title": "Star Wars",
      "popularity": 31.642,
      "poster_path": "/btTdmkgIvOi0FFip1sPuZI2oQG6.jpg",
      "original_language": "en",
      "original_title": "Star Wars",
      "genre_ids": [
        12,
        28,
        878
      ],
      "backdrop_path": "/4iJfYYoQzZcONB9hNzg0J0wWyPH.jpg",
      "adult": false,
      "overview": "Princess Leia is captured and held hostage by the evil Imperial forces in their effort to take over the galactic Empire. Venturesome Luke Skywalker and dashing captain Han Solo team together with the loveable robot duo R2-D2 and C-3PO to rescue the beautiful princess and restore peace and justice in the Empire.",
      "release_date": "1977-05-25"
    },
    {
      "vote_count": 6428,
      "id": 181808,
      "video": false,
      "vote_average": 7.1,
      "title": "Star Wars: The Last Jedi",
      "popularity": 52.047,
      "poster_path": "/kOVEVeg59E0wsnXmF9nrh6OmWII.jpg",
      "original_language": "en",
      "original_title": "Star Wars: The Last Jedi",
      "genre_ids": [
        14,
        12,
        878,
        28
      ],
      "backdrop_path": "/5Iw7zQTHVRBOYpA0V6z0yypOPZh.jpg",
      "adult": false,
      "overview": "Rey develops her newly discovered abilities with the guidance of Luke Skywalker, who is unsettled by the strength of her powers. Meanwhile, the Resistance prepares to do battle with the First Order.",
      "release_date": "2017-12-13"
    },
    {
      "vote_count": 1368,
      "id": 348350,
      "video": false,
      "vote_average": 6.8,
      "title": "Solo: A Star Wars Story",
      "popularity": 30.342,
      "poster_path": "/4oD6VEccFkorEBTEDXtpLAaz0Rl.jpg",
      "original_language": "en",
      "original_title": "Solo: A Star Wars Story",
      "genre_ids": [
        28,
        12,
        878
      ],
      "backdrop_path": "/7LZ0K4FsALrt7OeNIGOVLNuKQRU.jpg",
      "adult": false,
      "overview": "Through a series of daring escapades deep within a dark and dangerous criminal underworld, Han Solo meets his mighty future copilot Chewbacca and encounters the notorious gambler Lando Calrissian.",
      "release_date": "2018-05-23"
    },
    {
      "vote_count": 10856,
      "id": 140607,
      "video": false,
      "vote_average": 7.4,
      "title": "Star Wars: The Force Awakens",
      "popularity": 28.292,
      "poster_path": "/weUSwMdQIa3NaXVzwUoIIcAi85d.jpg",
      "original_language": "en",
      "original_title": "Star Wars: The Force Awakens",
      "genre_ids": [
        28,
        12,
        878,
        14
      ],
      "backdrop_path": "/njv65RTipNSTozFLuF85jL0bcQe.jpg",
      "adult": false,
      "overview": "Thirty years after defeating the Galactic Empire, Han Solo and his allies face a new threat from the evil Kylo Ren and his army of Stormtroopers.",
      "release_date": "2015-12-15"
    },
    {
      "vote_count": 655,
      "id": 12180,
      "video": false,
      "vote_average": 5.9,
      "title": "Star Wars: The Clone Wars",
      "popularity": 8.162,
      "poster_path": "/xd6yhmtS6mEURZLwUDT5raEMbf.jpg",
      "original_language": "en",
      "original_title": "Star Wars: The Clone Wars",
      "genre_ids": [
        16,
        28,
        878,
        12
      ],
      "backdrop_path": "/gmLMaDXi4lFWG8WitaCYOJS5GtL.jpg",
      "adult": false,
      "overview": "Set between Episode II and III the Clone Wars is the first computer animated Star Wars film. Anakin and Obi Wan must find out who kidnapped Jabba the Hutts son and return him safely. The Seperatists will try anything to stop them and ruin any chance of a diplomatic agreement between the Hutt's and the Republic.",
      "release_date": "2008-08-05"
    },
    {
      "vote_count": 7777,
      "id": 330459,
      "video": false,
      "vote_average": 7.5,
      "title": "Rogue One: A Star Wars Story",
      "popularity": 19.16,
      "poster_path": "/qjiskwlV1qQzRCjpV0cL9pEMF9a.jpg",
      "original_language": "en",
      "original_title": "Rogue One: A Star Wars Story",
      "genre_ids": [
        28,
        12,
        878
      ],
      "backdrop_path": "/tZjVVIYXACV4IIIhXeIM59ytqwS.jpg",
      "adult": false,
      "overview": "A rogue band of resistance fighters unite for a mission to steal the Death Star plans and bring a new hope to the galaxy.",
      "release_date": "2016-12-14"
    },
    {
      "vote_count": 26,
      "id": 181812,
      "video": false,
      "vote_average": 0,
      "title": "Star Wars: Episode IX",
      "popularity": 6.364,
      "poster_path": "/yVYTFvIiKyr6vsrPw3o5C6t2eoL.jpg",
      "original_language": "en",
      "original_title": "Star Wars: Episode IX",
      "genre_ids": [
        28,
        12,
        878
      ],
      "backdrop_path": "/i0NGCiMxL4NIVk2hhjtVgnNYZ3a.jpg",
      "adult": false,
      "overview": "The next installment in the franchise, and the conclusion of the new 'Star Wars' trilogy",
      "release_date": "2019-12-18"
    },
    {
      "vote_count": 6557,
      "id": 1893,
      "video": false,
      "vote_average": 6.4,
      "title": "Star Wars: Episode I - The Phantom Menace",
      "popularity": 19.382,
      "poster_path": "/n8V09dDc02KsSN6Q4hC2BX6hN8X.jpg",
      "original_language": "en",
      "original_title": "Star Wars: Episode I - The Phantom Menace",
      "genre_ids": [
        12,
        28,
        878
      ],
      "backdrop_path": "/v6lRzOActebITc9rizhNAdwQR1O.jpg",
      "adult": false,
      "overview": "Anakin Skywalker, a young slave strong with the Force, is discovered on Tatooine. Meanwhile, the evil Sith have returned, enacting their plot for revenge against the Jedi.",
      "release_date": "1999-05-19"
    },
    {
      "vote_count": 89,
      "id": 42979,
      "video": false,
      "vote_average": 7.2,
      "title": "Robot Chicken: Star Wars",
      "popularity": 5.174,
      "poster_path": "/kWKspQ7YiQ82xXM1jVbIbqh5OyV.jpg",
      "original_language": "en",
      "original_title": "Robot Chicken: Star Wars",
      "genre_ids": [
        16,
        35,
        878
      ],
      "backdrop_path": "/gZxY7VDOI48gjhnDJK1E6n9uHWk.jpg",
      "adult": false,
      "overview": "Fans of Adult Swim's \"Robot Chicken\" and the Star Wars movie franchise won't want to miss this collection of 30 sketches. This hilarious compilation features an array of skits -- such as \"Darth Vader's Collect Call\" and \"Inside the AT-AT\" -- as well as the incredible voice talents of Hulk Hogan, Malcolm McDowell, Conan O'Brien and even the original Luke Skywalker himself, Mark Hamill.",
      "release_date": "2007-07-17"
    },
    {
      "vote_count": 5932,
      "id": 1894,
      "video": false,
      "vote_average": 6.5,
      "title": "Star Wars: Episode II - Attack of the Clones",
      "popularity": 13.214,
      "poster_path": "/2vcNFtrZXNwIcBgH5e2xXCmVR8t.jpg",
      "original_language": "en",
      "original_title": "Star Wars: Episode II - Attack of the Clones",
      "genre_ids": [
        12,
        28,
        878
      ],
      "backdrop_path": "/1Slt26IGf2XHqv8xjEJ7LMZqCYb.jpg",
      "adult": false,
      "overview": "Ten years after the invasion of Naboo, the galaxy is on the brink of civil war. Under the leadership of a renegade Jedi named Count Dooku, thousands of solar systems threaten to break away from the Galactic Republic. When an assassination attempt is made on Senator Padmé Amidala, the former Queen of Naboo, twenty-year-old Jedi apprentice Anakin Skywalker is assigned to protect her. In the course of his mission, Anakin discovers his love for Padmé as well as his own darker side. Soon, Anakin, Padmé, and Obi-Wan Kenobi are drawn into the heart of the Separatist movement and the beginning of the Clone Wars.",
      "release_date": "2002-05-15"
    },
    {
      "vote_count": 6143,
      "id": 1895,
      "video": false,
      "vote_average": 7.2,
      "title": "Star Wars: Episode III - Revenge of the Sith",
      "popularity": 12.37,
      "poster_path": "/tgr5Pdy7ehZYBqBkN2K7Q02xgOb.jpg",
      "original_language": "en",
      "original_title": "Star Wars: Episode III - Revenge of the Sith",
      "genre_ids": [
        878,
        12,
        28
      ],
      "backdrop_path": "/wUYTfFbfPiZC6Lcyt1nonr69ZmK.jpg",
      "adult": false,
      "overview": "Years after the onset of the Clone Wars, the noble Jedi Knights lead a massive clone army into a galaxy-wide battle against the Separatists. When the sinister Sith unveil a thousand-year-old plot to rule the galaxy, the Republic crumbles and from its ashes rises the evil Galactic Empire. Jedi hero Anakin Skywalker is seduced by the dark side of the Force to become the Emperor's new apprentice – Darth Vader. The Jedi are decimated, as Obi-Wan Kenobi and Jedi Master Yoda are forced into hiding. The only hope for the galaxy are Anakin's own offspring – the twin children born in secrecy who will grow up to become heroes.",
      "release_date": "2005-05-17"
    },
    {
      "vote_count": 67,
      "id": 333355,
      "video": true,
      "vote_average": 7.9,
      "title": "Star Wars: Clone Wars — Volume 1",
      "popularity": 4.477,
      "poster_path": "/2Bc0Ust8YlcJy6tSwiXTLu66xRa.jpg",
      "original_language": "en",
      "original_title": "Star Wars: Clone Wars — Volume 1",
      "genre_ids": [
        28,
        12,
        16,
        14,
        878
      ],
      "backdrop_path": "/obPvIvB3Y9diTb4BwIUvR86Q262.jpg",
      "adult": false,
      "overview": "The Saga continues with the Emmy-winning \"Star Wars: Clone Wars.\" This animated micro-series, directed by Genndy Tartakovsky, captures George Lucas' vision in a dynamic animated style that is a visual delight for all ages.  \"Star Wars: Clone Wars\" Volume 1 reveals the epic adventures that bridge the story arc between \"Star Wars: Episode II: Attack of the Clones\" and \"Star Wars: Episode III: Revenge of the Sith.\" Follow the valiant Jedi Knights and the Brave soldiers of the Republic's clone army as they battle against the droid forces of the Separatists, led by the evil Sith Lord, Count Dooku. Witness the battles that made galactic heroes out of Anakin Skywalker and Obi-Wan Kenobi, and along the way get a first look at the new menace from Episode III, General Grevious.  This is a must-have for any \"Star Wars\" collection.",
      "release_date": "2005-04-27"
    },
    {
      "vote_count": 140,
      "id": 74849,
      "video": false,
      "vote_average": 3.1,
      "title": "The Star Wars Holiday Special",
      "popularity": 4.711,
      "poster_path": "/sNxgvnswaahOA3mdkjcuYYpLi7i.jpg",
      "original_language": "en",
      "original_title": "The Star Wars Holiday Special",
      "genre_ids": [
        12,
        35,
        10751,
        878,
        10770
      ],
      "backdrop_path": "/ie6u0zegHcVJEtHSpYn0KgEogrD.jpg",
      "adult": false,
      "overview": "Luke Skywalker and Han Solo battle evil Imperial forces to help Chewbacca reach his imperiled family on the Wookiee planet - in time for Life Day, their most important day of the year!",
      "release_date": "1978-12-01"
    },
    {
      "vote_count": 44,
      "id": 332479,
      "video": false,
      "vote_average": 7.9,
      "title": "Star Wars: TIE Fighter",
      "popularity": 2.399,
      "poster_path": "/jwUexLOEBMFMbBoKzK4AT7hQYDw.jpg",
      "original_language": "en",
      "original_title": "Star Wars: TIE Fighter",
      "genre_ids": [
        878,
        28,
        16
      ],
      "backdrop_path": "/eNSyTprwxXrXs5amshnz2R2GKod.jpg",
      "adult": false,
      "overview": "Paul “OtaKing” Johnson drops a real treat in the form of this “Star Wars: TIE Fighter” animated short. Complete with appropriately radical electric guitar solos and impressive attention to detail, “TIE Fighter” casts the forces of the Galactic Empire not in the role of disposable cannon fodder seen in the Star Wars films, but as near-suicidally reckless angels of death.  Johnson animated this 7-minute short over the course of “four years’ worth of weekends,” and his love and attention-to-detail shows.",
      "release_date": "2015-03-24"
    },
    {
      "vote_count": 43,
      "id": 287663,
      "video": false,
      "vote_average": 6.9,
      "title": "Star Wars Rebels: Spark of Rebellion",
      "popularity": 3.848,
      "poster_path": "/sgZvwdGuqOfbJTfUNq5lh9B4HQy.jpg",
      "original_language": "en",
      "original_title": "Star Wars Rebels: Spark of Rebellion",
      "genre_ids": [
        12,
        16,
        28,
        878
      ],
      "backdrop_path": "/myt3uYcUL6DpQs20pObJrJbBWMu.jpg",
      "adult": false,
      "overview": "A Long Time Ago In A Galaxy Far, Far Away… Against the might of the Galactic Empire, an unlikely band of heroes emerges to renew the fight for freedom.  Five years before the events of Star Wars Episode IV: A New Hope, the reigning evil Empire continues to tighten its grip of power and fear throughout the cosmos. But even amidst the tyranny and oppression of these dark days, a glimmer of light emerges. Meet the ragtag crew of the starship Ghost: Twi’lek pilot Hera, street-smart pickpocket Ezra, team leader Kanan, alien enforcer Zeb, explosives expert Sabine, and Chopper, the cantankerous Droid. Together, they embark on action-packed adventures, battle ruthless villains, and ignite the very first Spark Of Rebellion against a surging tide of Stormtroopers, TIE fighters and the mysterious Inquisitor.",
      "release_date": "2014-10-03"
    },
    {
      "vote_count": 31,
      "id": 333365,
      "video": true,
      "vote_average": 8.1,
      "title": "Star Wars: Clone Wars — Volume 2",
      "popularity": 2.56,
      "poster_path": "/nvxKvVQortycuwmfMdUIfDtYdL1.jpg",
      "original_language": "en",
      "original_title": "Star Wars: Clone Wars — Volume 2",
      "genre_ids": [
        14,
        16,
        28,
        12,
        878
      ],
      "backdrop_path": "/2sppAZL8lGFlV7MXlKdeeOgsCQW.jpg",
      "adult": false,
      "overview": "The Emmy Award-winning animated series continues with \"Star Wars: Clone Wars\" Volume Two. Directed by Genndy Tartakovsky, this series captures George Lucas' vision in a dynamic animated style that is a visual delight for all ages. As seen on Cartoon Network, \"Star Wars: Clone Wars\" Volume Two concludes the epic adventures that bridge the story between \"Star Wars: Episode II: Attack of the Clones\" and \"Star Wars: Episode III: Revenge of the Sith.\" Witness firsthand the trials of Anakin Skywalker and the secret ceremony in which he becomes a Jedi Knight. Then, follow the Jedi was they attempt to repel a surprise attack by General Grevious on the galactic capital, Coruscant. \"Clone Wars\" Volume Two is filled with exciting galactic battles that lead directly to the beginning of \"Revenge of the Sith.\"",
      "release_date": "2005-11-30"
    },
    {
      "vote_count": 8251,
      "id": 1891,
      "video": false,
      "vote_average": 8.3,
      "title": "The Empire Strikes Back",
      "popularity": 17.532,
      "poster_path": "/9SKDSFbaM6LuGqG1aPWN3wYGEyD.jpg",
      "original_language": "en",
      "original_title": "The Empire Strikes Back",
      "genre_ids": [
        12,
        28,
        878
      ],
      "backdrop_path": "/amYkOxCwHiVTFKendcIW0rSrRlU.jpg",
      "adult": false,
      "overview": "The epic saga continues as Luke Skywalker, in hopes of defeating the evil Galactic Empire, learns the ways of the Jedi from aging master Yoda. But Darth Vader is more determined than ever to capture Luke. Meanwhile, rebel leader Princess Leia, cocky Han Solo, Chewbacca, and droids C-3PO and R2-D2 are thrown into various stages of capture, betrayal and despair.",
      "release_date": "1980-05-20"
    },
    {
      "vote_count": 25,
      "id": 136406,
      "video": false,
      "vote_average": 6.4,
      "title": "Lego Star Wars: The Empire Strikes Out",
      "popularity": 2.947,
      "poster_path": "/vHGgKAkwydQjpS4TqktCTwGtKpy.jpg",
      "original_language": "en",
      "original_title": "Lego Star Wars: The Empire Strikes Out",
      "genre_ids": [
        878,
        16,
        28,
        10751,
        35
      ],
      "backdrop_path": "/9k36XxWzys6yAgjG8sjoRhPU0HT.jpg",
      "adult": false,
      "overview": "A new Imperial threat has been detected and the good guys have to act fast. But Jedi-in-training Luke discovers that instant fame as a “Death-Star-Blower-Upper” can be a double-edged lightsaber, as his secret mission to Naboo is thwarted by those most unstoppable of foes -- crazed fans! (It’s hard being the galaxy’s New Hope.) Meanwhile, Darth Vader sees his day go from bad to worse when his relationship with the Emperor is imperiled by the unexpected arrival of Darth Maul. Luke and Vader’s quests to prove themselves lead them on a collision course with each other (literally) and their destiny.",
      "release_date": "2012-09-24"
    },
    {
      "vote_count": 6753,
      "id": 1892,
      "video": false,
      "vote_average": 8,
      "title": "Return of the Jedi",
      "popularity": 12.437,
      "poster_path": "/lrJWyjOVjPhghl4KyAMtOepAxs.jpg",
      "original_language": "en",
      "original_title": "Return of the Jedi",
      "genre_ids": [
        12,
        28,
        878
      ],
      "backdrop_path": "/koE7aMeR2ATivI18mCbscLsI0Nm.jpg",
      "adult": false,
      "overview": "As Rebel leaders map their strategy for an all-out attack on the Emperor's newer, bigger Death Star. Han Solo remains frozen in the cavernous desert fortress of Jabba the Hutt, the most loathsome outlaw in the universe, who is also keeping Princess Leia as a slave girl. Now a master of the Force, Luke Skywalker rescues his friends, but he cannot become a true Jedi Knight until he wages his own crucial battle against Darth Vader, who has sworn to win Luke over to the dark side of the Force.",
      "release_date": "1983-05-23"
    },
    {
      "vote_count": 48,
      "id": 42982,
      "video": false,
      "vote_average": 7.6,
      "title": "Robot Chicken: Star Wars Episode II",
      "popularity": 2.955,
      "poster_path": "/kTCaL5VFwQr11P8dZpb0yzk4oQy.jpg",
      "original_language": "en",
      "original_title": "Robot Chicken: Star Wars Episode II",
      "genre_ids": [
        35,
        878
      ],
      "backdrop_path": "/qrdLxo18H7x3tr7ewpSz5A3VajH.jpg",
      "adult": false,
      "overview": "Seth Green and Matthew Senreich serve up more hilarious Star Wars-inspired satire in this second compilation of sketches featuring the zany stop-motion animation of Adult Swim's \"Robot Chicken.\" Gary the stormtrooper deals with irascible boss Darth Vader on Take Your Daughter to Work Day, while Anakin babysits a certain up-and-coming Jedi. Carrie Fisher, Billy Dee Williams, Conan O'Brien and other stars provide voices.",
      "release_date": "2008-11-16"
    }
  ]
}